{
  "error": "no such element",
  "message": "no such element: Unable to locate element: {\"method\":\"css selector\",\"selector\":\"body > app-dashboard > div > main > div > app-event-list > div > div > table > tbody > tr:nth-child(1) > td.mat-cell.cdk-column-actions.mat-column-actions.ng-star-inserted > a.btn.btn-secondary\"}\n  (Session info: chrome=88.0.4324.182)",
  "stacktrace": "#0 0x5625f9e93199 <unknown>\n"
}