{
  "using": "css selector",
  "value": "body > app-dashboard > div > main > div > app-event-list > div > div > table > tbody > tr:nth-child(1) > td.mat-cell.cdk-column-actions.mat-column-actions.ng-star-inserted > a.btn.btn-secondary"
}