{
  "error": "no such element",
  "message": "no such element: Unable to locate element: {\"method\":\"xpath\",\"selector\":\".//span[normalize-space() = \"পরবর্তী​\"]\"}\n  (Session info: chrome=88.0.4324.182)",
  "stacktrace": "#0 0x55e8af88b199 <unknown>\n"
}