{
  "error": "no such element",
  "message": "no such element: Unable to locate element: {\"method\":\"css selector\",\"selector\":\"প্রবেশ করুন\"}\n  (Session info: chrome=88.0.4324.182)",
  "stacktrace": "#0 0x564a5f7f1199 <unknown>\n"
}