{
  "error": "no such element",
  "message": "no such element: Unable to locate element: {\"method\":\"css selector\",\"selector\":\"body > app-dashboard > div > main > div > app-event-list > div > div > table > tbody > tr:nth-child(1) > td.mat-cell.cdk-column-actions.mat-column-actions.ng-star-inserted > a.btn.btn-secondary\"}\n  (Session info: chrome=89.0.4389.82)",
  "stacktrace": "Backtrace:\n\tGetHandleVerifier [0x00E5B963+483]\n\tGetHandleVerifier [0x00E5B941+449]\n\tGetHandleVerifier [0x01203308+3832712]\n\tGetHandleVerifier [0x012261C4+3975748]\n\tGetHandleVerifier [0x01248822+4116642]\n\tGetHandleVerifier [0x0123B43A+4062394]\n\tGetHandleVerifier [0x01247159+4110809]\n\tGetHandleVerifier [0x0123B2EB+4062059]\n\tGetHandleVerifier [0x0121ED14+3945876]\n\tGetHandleVerifier [0x0121FBCE+3949646]\n\tGetHandleVerifier [0x0121FB59+3949529]\n\tOrdinal0 [0x00E1B5CC+46540]\n\tOrdinal0 [0x00E19F53+40787]\n\tOrdinal0 [0x00E19B12+39698]\n\tGetHandleVerifier [0x01121468+2907368]\n\tGetHandleVerifier [0x00F671EE+1096302]\n\tGetHandleVerifier [0x00F23E8D+821005]\n\tGetHandleVerifier [0x00F2396B+819691]\n\tGetHandleVerifier [0x00F23881+819457]\n\tGetHandleVerifier [0x00F4F463+998627]\n\tBaseThreadInitThunk [0x766AFA29+25]\n\tRtlGetAppContainerNamedObjectPath [0x775876B4+228]\n\tRtlGetAppContainerNamedObjectPath [0x77587684+180]\n"
}