[
  {
    "element-6066-11e4-a52e-4f735466cecf": "be21c87d-577a-4d7e-878e-4e001eb01556"
  },
  {
    "element-6066-11e4-a52e-4f735466cecf": "90edd962-bddb-43d0-b6c9-dfefd962a720"
  },
  {
    "element-6066-11e4-a52e-4f735466cecf": "3cfa8be0-46bc-4f84-be37-9256686108af"
  },
  {
    "element-6066-11e4-a52e-4f735466cecf": "c6ad677b-e375-47ce-b69a-751cb97460d7"
  },
  {
    "element-6066-11e4-a52e-4f735466cecf": "3f7769ed-4f70-4442-a7a6-abfb4c1e9457"
  },
  {
    "element-6066-11e4-a52e-4f735466cecf": "995fc212-c668-45fa-b9f9-9da3da1fc27e"
  },
  {
    "element-6066-11e4-a52e-4f735466cecf": "3e115b67-44a5-4160-ba7f-a5e21a64013e"
  },
  {
    "element-6066-11e4-a52e-4f735466cecf": "d1b2ee11-d1b8-4511-99b8-5dfaf0d50580"
  },
  {
    "element-6066-11e4-a52e-4f735466cecf": "d770d617-7de3-42e5-9c9b-7f26927ba413"
  },
  {
    "element-6066-11e4-a52e-4f735466cecf": "15a66935-dd19-4d4d-b29c-624b14c5328a"
  },
  {
    "element-6066-11e4-a52e-4f735466cecf": "79808405-6804-46f8-9315-d863803c6040"
  },
  {
    "element-6066-11e4-a52e-4f735466cecf": "7c1163ff-c08c-42d7-8b04-9c34e677e1cc"
  },
  {
    "element-6066-11e4-a52e-4f735466cecf": "9f7133b3-79b3-4ee4-a1f7-8e5713851d52"
  },
  {
    "element-6066-11e4-a52e-4f735466cecf": "2b8ff801-81c3-41c6-9e9d-b61b6912ea02"
  },
  {
    "element-6066-11e4-a52e-4f735466cecf": "7f64dc9a-4ef5-4c0c-af53-7539542890f9"
  },
  {
    "element-6066-11e4-a52e-4f735466cecf": "7c10d2ef-43b8-494b-8112-c07aec789c0c"
  },
  {
    "element-6066-11e4-a52e-4f735466cecf": "041508dd-b260-4b74-b2f8-a158799e0aa8"
  },
  {
    "element-6066-11e4-a52e-4f735466cecf": "d1595735-44d3-4cc4-ad2f-b294b58f9be9"
  },
  {
    "element-6066-11e4-a52e-4f735466cecf": "01907742-ffb0-4bad-af1c-46d51f9e8477"
  },
  {
    "element-6066-11e4-a52e-4f735466cecf": "0c0a06a0-81a6-4109-b593-d51dbc32f369"
  },
  {
    "element-6066-11e4-a52e-4f735466cecf": "5815397a-45ea-46f9-b751-02cb1253d5e6"
  },
  {
    "element-6066-11e4-a52e-4f735466cecf": "016974f1-f14b-4042-87d1-cbc5f6b44dc1"
  },
  {
    "element-6066-11e4-a52e-4f735466cecf": "49685053-cc42-41db-aff0-1a38c30262de"
  },
  {
    "element-6066-11e4-a52e-4f735466cecf": "78b350db-309a-4011-8686-2f937959a292"
  },
  {
    "element-6066-11e4-a52e-4f735466cecf": "abecb2ce-6160-4b2a-9dd6-5826bd9635f1"
  },
  {
    "element-6066-11e4-a52e-4f735466cecf": "7f97fecb-5b0e-4c61-9cd5-844ec0165030"
  },
  {
    "element-6066-11e4-a52e-4f735466cecf": "a53a8b2f-313b-43db-bc33-07c91decf45e"
  },
  {
    "element-6066-11e4-a52e-4f735466cecf": "3e11bb77-b61a-41c8-86fb-99c4d29609b7"
  },
  {
    "element-6066-11e4-a52e-4f735466cecf": "430ed594-0aaf-4c1f-8931-cf445d16959a"
  },
  {
    "element-6066-11e4-a52e-4f735466cecf": "f23ca093-ce43-44fd-a6ae-cc131eb8f97e"
  },
  {
    "element-6066-11e4-a52e-4f735466cecf": "185a701e-6c9e-44e2-a342-e1613e6eb826"
  },
  {
    "element-6066-11e4-a52e-4f735466cecf": "145d308f-c24c-484a-9c47-4ba16e1b1658"
  },
  {
    "element-6066-11e4-a52e-4f735466cecf": "f01556df-d3d2-4770-b266-d12648a23c85"
  },
  {
    "element-6066-11e4-a52e-4f735466cecf": "7c3c956c-9e91-4a13-bf63-f2690aad455b"
  },
  {
    "element-6066-11e4-a52e-4f735466cecf": "f5f8c5a7-a369-405b-b13b-ad127b4f60f3"
  },
  {
    "element-6066-11e4-a52e-4f735466cecf": "119cac0a-75af-4106-9459-63f1ac44b161"
  },
  {
    "element-6066-11e4-a52e-4f735466cecf": "d0c53a48-5119-4f9e-a00f-967685f09979"
  },
  {
    "element-6066-11e4-a52e-4f735466cecf": "3d8cfcfb-c23a-4e18-9e31-958bdb342019"
  },
  {
    "element-6066-11e4-a52e-4f735466cecf": "5c2a7079-48e2-4f34-8eaa-7f24582248ed"
  }
]