{
  "error": "no such element",
  "message": "no such element: Unable to locate element: {\"method\":\"xpath\",\"selector\":\".//mat-icon[normalize-space() = \"add\"]\"}\n  (Session info: chrome=88.0.4324.182)",
  "stacktrace": "#0 0x55de40879199 <unknown>\n"
}