{
  "error": "no such element",
  "message": "no such element: Unable to locate element: {\"method\":\"css selector\",\"selector\":\"[formcontrolname=\"referenceNo\"]\"}\n  (Session info: chrome=88.0.4324.182)",
  "stacktrace": "#0 0x559a0fd2b199 <unknown>\n"
}