[
  {
    "element-6066-11e4-a52e-4f735466cecf": "d0a53513-b397-4601-9f8b-93bca209e079"
  },
  {
    "element-6066-11e4-a52e-4f735466cecf": "e261c156-a242-448d-bea7-70c37ead6762"
  },
  {
    "element-6066-11e4-a52e-4f735466cecf": "2617e407-5dac-4178-b98b-20b6840784f6"
  },
  {
    "element-6066-11e4-a52e-4f735466cecf": "67f4189c-0be1-43ba-901d-32e0144eb0cb"
  },
  {
    "element-6066-11e4-a52e-4f735466cecf": "f7c8bb79-da05-4371-b00d-d53128cb88ff"
  },
  {
    "element-6066-11e4-a52e-4f735466cecf": "a3830ae4-ea07-468f-b1a1-bbadcb3c617e"
  },
  {
    "element-6066-11e4-a52e-4f735466cecf": "3191988f-8662-43a6-9a66-41a2e1c64e5f"
  },
  {
    "element-6066-11e4-a52e-4f735466cecf": "f3556707-9565-400d-bd9f-5acf32516572"
  },
  {
    "element-6066-11e4-a52e-4f735466cecf": "9ad96248-2f89-488e-b718-06ac691f0fb1"
  },
  {
    "element-6066-11e4-a52e-4f735466cecf": "64f22b3a-c1fd-46ca-8485-cef8ccd112bd"
  },
  {
    "element-6066-11e4-a52e-4f735466cecf": "0db38ed7-5c8d-41dc-971e-2bfaa9e4029e"
  },
  {
    "element-6066-11e4-a52e-4f735466cecf": "7a05a975-f02e-47b5-a7a5-edb396b81b27"
  },
  {
    "element-6066-11e4-a52e-4f735466cecf": "1c5ddea8-8e1e-4d1a-9862-60d67350c744"
  },
  {
    "element-6066-11e4-a52e-4f735466cecf": "80147e2b-9b21-42fa-956f-eb787638965c"
  },
  {
    "element-6066-11e4-a52e-4f735466cecf": "2fb98579-5b3d-446b-b48f-241585b97a4b"
  },
  {
    "element-6066-11e4-a52e-4f735466cecf": "3d6b0749-9f62-45d9-ba04-41bfeef283b2"
  },
  {
    "element-6066-11e4-a52e-4f735466cecf": "38e06fc5-e57a-4219-a858-979101bf84ba"
  },
  {
    "element-6066-11e4-a52e-4f735466cecf": "1b7be258-ec93-44a2-8c9c-e443609ce241"
  },
  {
    "element-6066-11e4-a52e-4f735466cecf": "034bb002-710d-4224-b4cf-14388978a069"
  },
  {
    "element-6066-11e4-a52e-4f735466cecf": "2eb22517-1fb5-4618-86f9-ff0f78ce33cb"
  },
  {
    "element-6066-11e4-a52e-4f735466cecf": "c33b4891-bf8b-45f4-b0da-94c1f1b6ef7e"
  },
  {
    "element-6066-11e4-a52e-4f735466cecf": "582a34e2-5690-46ec-891d-041e8a4906ad"
  },
  {
    "element-6066-11e4-a52e-4f735466cecf": "6ba308f9-f5b6-49c4-86f8-6ad1c7d67181"
  },
  {
    "element-6066-11e4-a52e-4f735466cecf": "d08ee404-fd01-42e2-a86d-125f22faa8fa"
  },
  {
    "element-6066-11e4-a52e-4f735466cecf": "5d1fbacf-d831-47ee-90de-bd4b2d4d754e"
  },
  {
    "element-6066-11e4-a52e-4f735466cecf": "cd7856c3-6b4f-4a7b-9a0a-11cb124883f0"
  },
  {
    "element-6066-11e4-a52e-4f735466cecf": "2a8e14d2-adff-4db6-92ad-d6c2ac015699"
  },
  {
    "element-6066-11e4-a52e-4f735466cecf": "6a1c117e-da78-4ed0-b705-db21253cebd1"
  },
  {
    "element-6066-11e4-a52e-4f735466cecf": "bf686f19-a70b-47a3-9711-24cea7bc13f9"
  },
  {
    "element-6066-11e4-a52e-4f735466cecf": "9d368b94-1037-4671-ac40-7c73efc851a2"
  },
  {
    "element-6066-11e4-a52e-4f735466cecf": "fa63c9b7-2845-4f40-a8f5-9dca085f9403"
  },
  {
    "element-6066-11e4-a52e-4f735466cecf": "198c7341-0621-4fc0-9e82-da66faed1348"
  },
  {
    "element-6066-11e4-a52e-4f735466cecf": "40429db5-3748-43fa-9a4c-c5246596f6b5"
  },
  {
    "element-6066-11e4-a52e-4f735466cecf": "c669fb1d-2cf8-45a7-8125-39b5ddf4c039"
  },
  {
    "element-6066-11e4-a52e-4f735466cecf": "cae520ec-e913-412a-b6dd-32173c746eac"
  },
  {
    "element-6066-11e4-a52e-4f735466cecf": "80936b15-f1d9-4cf2-9b0b-fa0379de4753"
  },
  {
    "element-6066-11e4-a52e-4f735466cecf": "999af629-6f6d-4ede-9ed9-aade1473d65f"
  },
  {
    "element-6066-11e4-a52e-4f735466cecf": "31426ddc-bdef-4da2-83d2-bb0c5f76d2ea"
  },
  {
    "element-6066-11e4-a52e-4f735466cecf": "76d8e8b5-65bd-4530-964f-e894ec728b7f"
  },
  {
    "element-6066-11e4-a52e-4f735466cecf": "3a62f64d-a6aa-48dd-82c1-6f64e821466d"
  },
  {
    "element-6066-11e4-a52e-4f735466cecf": "fc94d079-3ff3-41d5-a4cb-69131077debb"
  },
  {
    "element-6066-11e4-a52e-4f735466cecf": "bdf7cca5-29e8-41bd-965d-d980d001e8a5"
  },
  {
    "element-6066-11e4-a52e-4f735466cecf": "6cdc7e09-8c64-4194-ba99-da3a1c47f47c"
  }
]