{
  "error": "no such element",
  "message": "no such element: Unable to locate element: {\"method\":\"css selector\",\"selector\":\"simple-snack-bar>span\"}\n  (Session info: chrome=88.0.4324.182)",
  "stacktrace": "#0 0x55b154ae1199 <unknown>\n"
}