[
  {
    "element-6066-11e4-a52e-4f735466cecf": "deb457b7-f54f-4a2f-8f85-80f5fae574b8"
  },
  {
    "element-6066-11e4-a52e-4f735466cecf": "7fcbfa55-219b-4389-90f3-7052452718d7"
  },
  {
    "element-6066-11e4-a52e-4f735466cecf": "438595d6-95e4-4594-93c3-a589f0361a37"
  },
  {
    "element-6066-11e4-a52e-4f735466cecf": "0f57c045-ca1e-41eb-a5ee-a2258e3b3ac4"
  },
  {
    "element-6066-11e4-a52e-4f735466cecf": "2bb47eae-dbfa-4713-9f32-fd66561b1bb1"
  },
  {
    "element-6066-11e4-a52e-4f735466cecf": "8ef4fd7f-858c-4e15-9a7c-4a7a2a335fbf"
  },
  {
    "element-6066-11e4-a52e-4f735466cecf": "2acc1ca3-db10-434f-a601-82f3daa9fef6"
  },
  {
    "element-6066-11e4-a52e-4f735466cecf": "3153e093-a48d-4325-ad10-9d0005a6e336"
  },
  {
    "element-6066-11e4-a52e-4f735466cecf": "0398790e-97bc-4f81-a176-80bd5db2b820"
  },
  {
    "element-6066-11e4-a52e-4f735466cecf": "8be59308-8325-4cf8-9fbd-bc94356fb764"
  },
  {
    "element-6066-11e4-a52e-4f735466cecf": "0f0a08aa-bce9-4437-9c08-86d4b306f9f2"
  },
  {
    "element-6066-11e4-a52e-4f735466cecf": "1d19b555-8ce4-479f-988e-04940f7b9232"
  },
  {
    "element-6066-11e4-a52e-4f735466cecf": "2e6eb4a5-d92e-472c-accf-806e60668733"
  },
  {
    "element-6066-11e4-a52e-4f735466cecf": "929eb619-c598-4bb4-838f-57b0601d564f"
  },
  {
    "element-6066-11e4-a52e-4f735466cecf": "d532239d-c2ad-44df-9e94-974e8b934bf9"
  },
  {
    "element-6066-11e4-a52e-4f735466cecf": "5d3beefe-6dff-4413-aa31-5813de6e2e27"
  },
  {
    "element-6066-11e4-a52e-4f735466cecf": "b0a1d042-20bc-43f2-8cad-f4126027b003"
  },
  {
    "element-6066-11e4-a52e-4f735466cecf": "9f55eb2e-4bdd-447a-b812-0635c18734b0"
  },
  {
    "element-6066-11e4-a52e-4f735466cecf": "84a7dd77-78a8-4a9a-86d3-5e5670ca1129"
  },
  {
    "element-6066-11e4-a52e-4f735466cecf": "4acda8a1-c5f9-4ca0-89fc-835993bc2f0c"
  },
  {
    "element-6066-11e4-a52e-4f735466cecf": "d0338398-fcc7-4e81-afd9-c1039064f2ac"
  },
  {
    "element-6066-11e4-a52e-4f735466cecf": "537d4331-6c23-44ea-859d-0e5d92d91151"
  },
  {
    "element-6066-11e4-a52e-4f735466cecf": "28cb0325-c88b-4a1d-87aa-e2a9cfef6100"
  },
  {
    "element-6066-11e4-a52e-4f735466cecf": "8dca6d7c-883c-4479-a224-ddfa1205c2ba"
  },
  {
    "element-6066-11e4-a52e-4f735466cecf": "5361ef9b-3b27-4eb1-891d-f39fce393119"
  },
  {
    "element-6066-11e4-a52e-4f735466cecf": "aff93daf-1e13-4efe-ac0c-20eabec89ede"
  },
  {
    "element-6066-11e4-a52e-4f735466cecf": "06c1db27-992d-401e-a50e-6f9e2a81df62"
  },
  {
    "element-6066-11e4-a52e-4f735466cecf": "01b7cd8c-b44f-4e52-af89-bb3b241dfcff"
  },
  {
    "element-6066-11e4-a52e-4f735466cecf": "ec6394b3-01ab-4c3c-a939-98ab69d076c7"
  },
  {
    "element-6066-11e4-a52e-4f735466cecf": "19681825-4747-4cf9-aed8-b743c2eb20cb"
  },
  {
    "element-6066-11e4-a52e-4f735466cecf": "73844b23-0d02-400a-b1ae-3de5fa3999c4"
  },
  {
    "element-6066-11e4-a52e-4f735466cecf": "2813df9e-6108-40c5-a812-c4b8f48d4725"
  },
  {
    "element-6066-11e4-a52e-4f735466cecf": "dc9dd8cb-e245-4b80-b80a-86eb95630d92"
  },
  {
    "element-6066-11e4-a52e-4f735466cecf": "f09e9e33-b7d5-4dac-9dbf-75138045119d"
  },
  {
    "element-6066-11e4-a52e-4f735466cecf": "8aa37398-f35d-4207-8f44-4113434d05de"
  },
  {
    "element-6066-11e4-a52e-4f735466cecf": "e19d4da7-e28b-4698-ae8c-1d6112a66c1e"
  },
  {
    "element-6066-11e4-a52e-4f735466cecf": "61ef0aa6-fd4c-4e46-be39-a8115192fde3"
  },
  {
    "element-6066-11e4-a52e-4f735466cecf": "00e991bc-9897-421c-9b21-47340f1f1bda"
  },
  {
    "element-6066-11e4-a52e-4f735466cecf": "f6198bfb-efa8-442c-aa03-6681f4eda3e7"
  }
]