{
  "error": "no such element",
  "message": "no such element: Unable to locate element: {\"method\":\"css selector\",\"selector\":\"button > span > mat-icon\"}\n  (Session info: chrome=88.0.4324.182)",
  "stacktrace": "#0 0x55cb91697199 <unknown>\n"
}