{
  "error": "no such element",
  "message": "no such element: Unable to locate element: {\"method\":\"css selector\",\"selector\":\"body > app-dashboard > div > main > div > app-event-list > div > div > table > tbody > tr:nth-child(1) > td.mat-cell.cdk-column-actions.mat-column-actions.ng-star-inserted > a.btn.btn-secondary\"}\n  (Session info: chrome=89.0.4389.82)",
  "stacktrace": "Backtrace:\n\tGetHandleVerifier [0x0035B963+483]\n\tGetHandleVerifier [0x0035B941+449]\n\tGetHandleVerifier [0x00703308+3832712]\n\tGetHandleVerifier [0x007261C4+3975748]\n\tGetHandleVerifier [0x00748822+4116642]\n\tGetHandleVerifier [0x0073B43A+4062394]\n\tGetHandleVerifier [0x00747159+4110809]\n\tGetHandleVerifier [0x0073B2EB+4062059]\n\tGetHandleVerifier [0x0071ED14+3945876]\n\tGetHandleVerifier [0x0071FBCE+3949646]\n\tGetHandleVerifier [0x0071FB59+3949529]\n\tOrdinal0 [0x0031B5CC+46540]\n\tOrdinal0 [0x00319F53+40787]\n\tOrdinal0 [0x00319B12+39698]\n\tGetHandleVerifier [0x00621468+2907368]\n\tGetHandleVerifier [0x004671EE+1096302]\n\tGetHandleVerifier [0x00423E8D+821005]\n\tGetHandleVerifier [0x0042396B+819691]\n\tGetHandleVerifier [0x00423881+819457]\n\tGetHandleVerifier [0x0044F463+998627]\n\tBaseThreadInitThunk [0x766AFA29+25]\n\tRtlGetAppContainerNamedObjectPath [0x775876B4+228]\n\tRtlGetAppContainerNamedObjectPath [0x77587684+180]\n"
}