{
  "error": "no such element",
  "message": "no such element: Unable to locate element: {\"method\":\"css selector\",\"selector\":\"img[src=\"assets/img/brand/event.png\"]\"}\n  (Session info: chrome=88.0.4324.182)",
  "stacktrace": "#0 0x56032ddfe199 <unknown>\n"
}