"Epic","Feature","Story","FAILED","BROKEN","PASSED","SKIPPED","UNKNOWN"
"","navigate Eventlist Url and click new Event button","","0","0","2","0","0"
"","","","0","1","2","0","0"
"","navigate dashboard and click event module","","0","0","2","0","0"
"","test-basic Info","","0","1","1","0","0"
"","test-sponsor","","0","2","0","0","0"
"","test-venue","","1","1","0","0","0"
"","test- event edit-button","","0","1","1","0","0"
"","test -program schedule","","0","2","0","0","0"
"","test -commitee","","0","2","0","0","0"
"","test-members","","0","2","0","0","0"
"","test -checklist","","0","2","0","0","0"
"","navigate calendar Url and click event-list","","0","0","2","0","0"
"","test- select event name-from cards","","0","1","1","0","0"
"","testing budget","","0","2","0","0","0"
"","ইভেন্ট অনুমোদনের জন্য প্রেরণ","","0","2","0","0","0"
"","valid credentials","","0","0","2","0","0"
"","test-concept note","","0","1","1","0","0"
"","invalid credentials","","0","0","1","0","0"
