{
  "uid" : "4b4757e66a1912dae1a509f688f20b0f",
  "children" : [ {
    "name" : "Product defects",
    "children" : [ {
      "name" : "Expect $(`span=সংরক্ষণ করুন`) to have text\n                \n                Expected: \"সংরক্ষণ করুন​\"\n                Received: undefined",
      "children" : [ {
        "name" : "test-venue",
        "uid" : "7e698a6742501dcc",
        "parentUid" : "d5e6965a5ff640a03596223b2b6be3e2",
        "status" : "failed",
        "time" : {
          "start" : 1615491678612,
          "stop" : 1615491705158,
          "duration" : 26546
        },
        "flaky" : false,
        "newFailed" : false,
        "parameters" : [ "chrome-89.0.4389.82" ]
      } ],
      "uid" : "d5e6965a5ff640a03596223b2b6be3e2"
    } ],
    "uid" : "8fb3a91ba5aaf9de24cc8a92edc82b5d"
  }, {
    "name" : "Test defects",
    "children" : [ {
      "name" : "element click intercepted: Element <span class=\"mat-button-wrapper\">...</span> is not clickable at point (950, 612). Other element would receive the click: <div class=\"cdk-overlay-backdrop cdk-overlay-dark-backdrop cdk-overlay-backdrop-showing\"></div>\n                  (Session info: chrome=89.0.4389.82)",
      "children" : [ {
        "name" : "test -commitee",
        "uid" : "12fd5a33c53a6325",
        "parentUid" : "bdea2e8fd3ba13269e88432b984c1d56",
        "status" : "broken",
        "time" : {
          "start" : 1615491705159,
          "stop" : 1615491709819,
          "duration" : 4660
        },
        "flaky" : false,
        "newFailed" : false,
        "parameters" : [ "chrome-89.0.4389.82" ]
      }, {
        "name" : "test -program schedule",
        "uid" : "198e90d2903d88c",
        "parentUid" : "bdea2e8fd3ba13269e88432b984c1d56",
        "status" : "broken",
        "time" : {
          "start" : 1615491709819,
          "stop" : 1615491714413,
          "duration" : 4594
        },
        "flaky" : false,
        "newFailed" : false,
        "parameters" : [ "chrome-89.0.4389.82" ]
      }, {
        "name" : "test -checklist",
        "uid" : "da535ad85afbc4a0",
        "parentUid" : "bdea2e8fd3ba13269e88432b984c1d56",
        "status" : "broken",
        "time" : {
          "start" : 1615491714413,
          "stop" : 1615491718993,
          "duration" : 4580
        },
        "flaky" : false,
        "newFailed" : false,
        "parameters" : [ "chrome-89.0.4389.82" ]
      }, {
        "name" : "test-sponsor",
        "uid" : "1f44d32ed84b0949",
        "parentUid" : "bdea2e8fd3ba13269e88432b984c1d56",
        "status" : "broken",
        "time" : {
          "start" : 1615491718993,
          "stop" : 1615491723567,
          "duration" : 4574
        },
        "flaky" : false,
        "newFailed" : false,
        "parameters" : [ "chrome-89.0.4389.82" ]
      }, {
        "name" : "test-members",
        "uid" : "1b4ebf80501490b1",
        "parentUid" : "bdea2e8fd3ba13269e88432b984c1d56",
        "status" : "broken",
        "time" : {
          "start" : 1615491723568,
          "stop" : 1615491728170,
          "duration" : 4602
        },
        "flaky" : false,
        "newFailed" : false,
        "parameters" : [ "chrome-89.0.4389.82" ]
      }, {
        "name" : "testing budget",
        "uid" : "c5101c853574c58d",
        "parentUid" : "bdea2e8fd3ba13269e88432b984c1d56",
        "status" : "broken",
        "time" : {
          "start" : 1615491728170,
          "stop" : 1615491732827,
          "duration" : 4657
        },
        "flaky" : false,
        "newFailed" : false,
        "parameters" : [ "chrome-89.0.4389.82" ]
      } ],
      "uid" : "bdea2e8fd3ba13269e88432b984c1d56"
    }, {
      "name" : "element click intercepted: Element <button _ngcontent-vwx-c17=\"\" class=\"fab-toggler mat-mini-fab mat-button-base mat-primary\" color=\"primary\" mat-mini-fab=\"\" mattooltip=\"অ্যাকশনসমূহ​\" ng-reflect-color=\"primary\" ng-reflect-message=\"অ্যাকশনসমূহ​\" aria-describedby=\"cdk-describedby-message-14\" cdk-describedby-host=\"\" style=\"touch-action: none; user-select: none; -webkit-user-drag: none; -webkit-tap-highlight-color: rgba(0, 0, 0, 0);\">...</button> is not clickable at point (979, 90). Other element would receive the click: <div class=\"cdk-overlay-backdrop cdk-overlay-dark-backdrop cdk-overlay-backdrop-showing\"></div>\n                  (Session info: chrome=89.0.4389.82)",
      "children" : [ {
        "name" : "ইভেন্ট অনুমোদনের জন্য প্রেরণ",
        "uid" : "bc81ef42984ff2a1",
        "parentUid" : "6a084b795821fd470cfc7642793743dd",
        "status" : "broken",
        "time" : {
          "start" : 1615491732827,
          "stop" : 1615491737464,
          "duration" : 4637
        },
        "flaky" : false,
        "newFailed" : false,
        "parameters" : [ "chrome-89.0.4389.82" ]
      } ],
      "uid" : "6a084b795821fd470cfc7642793743dd"
    }, {
      "name" : "ENOENT: no such file or directory, open './data.csv'",
      "children" : [ {
        "name" : "csv -read -data",
        "uid" : "16ee6340f81f3e4a",
        "parentUid" : "2ad12afc61c843c889e4ed4a971a103d",
        "status" : "broken",
        "time" : {
          "start" : 1615709529143,
          "stop" : 1615709529152,
          "duration" : 9
        },
        "flaky" : false,
        "newFailed" : false,
        "parameters" : [ "chrome-88.0.4324.182" ]
      } ],
      "uid" : "2ad12afc61c843c889e4ed4a971a103d"
    }, {
      "name" : "no such window: target window already closed\n                from unknown error: web view not found\n                  (Session info: chrome=88.0.4324.182)",
      "children" : [ {
        "name" : "test -event edit-button-",
        "uid" : "58c64b08d125b4a1",
        "parentUid" : "73ef2d7eb4aad76be19c98765dea53cc",
        "status" : "broken",
        "time" : {
          "start" : 1615711501380,
          "stop" : 1615711501412,
          "duration" : 32
        },
        "flaky" : false,
        "newFailed" : false,
        "parameters" : [ "chrome-88.0.4324.182" ]
      } ],
      "uid" : "73ef2d7eb4aad76be19c98765dea53cc"
    }, {
      "name" : "Can't call getText on element with selector \"#mat-option-130 > span\" because element wasn't found",
      "children" : [ {
        "name" : "test-select Event Name from cards",
        "uid" : "f4274294fad86c5",
        "parentUid" : "a013318876ac5d2fc66b4902abca9c26",
        "status" : "broken",
        "time" : {
          "start" : 1615802894225,
          "stop" : 1615802904518,
          "duration" : 10293
        },
        "flaky" : false,
        "newFailed" : false,
        "parameters" : [ "chrome-88.0.4324.182" ]
      } ],
      "uid" : "a013318876ac5d2fc66b4902abca9c26"
    }, {
      "name" : "could not click on selector: [object Object]",
      "children" : [ {
        "name" : "test-concept note",
        "uid" : "400ac96f26163e3",
        "parentUid" : "8d74c6ff799c07c82e90313440c2eae3",
        "status" : "broken",
        "time" : {
          "start" : 1615802904518,
          "stop" : 1615802914666,
          "duration" : 10148
        },
        "flaky" : false,
        "newFailed" : false,
        "parameters" : [ "chrome-88.0.4324.182" ]
      }, {
        "name" : "test-venue",
        "uid" : "b3b3cbece02c757",
        "parentUid" : "8d74c6ff799c07c82e90313440c2eae3",
        "status" : "broken",
        "time" : {
          "start" : 1615802927815,
          "stop" : 1615802937976,
          "duration" : 10161
        },
        "flaky" : false,
        "newFailed" : false,
        "parameters" : [ "chrome-88.0.4324.182" ]
      }, {
        "name" : "test -commitee",
        "uid" : "e8a7b0d747165266",
        "parentUid" : "8d74c6ff799c07c82e90313440c2eae3",
        "status" : "broken",
        "time" : {
          "start" : 1615802937976,
          "stop" : 1615802948126,
          "duration" : 10150
        },
        "flaky" : false,
        "newFailed" : false,
        "parameters" : [ "chrome-88.0.4324.182" ]
      }, {
        "name" : "test -program schedule",
        "uid" : "e47f9a2dabd4c5f7",
        "parentUid" : "8d74c6ff799c07c82e90313440c2eae3",
        "status" : "broken",
        "time" : {
          "start" : 1615802948126,
          "stop" : 1615802958274,
          "duration" : 10148
        },
        "flaky" : false,
        "newFailed" : false,
        "parameters" : [ "chrome-88.0.4324.182" ]
      }, {
        "name" : "test -checklist",
        "uid" : "2dc029e0695e2ac4",
        "parentUid" : "8d74c6ff799c07c82e90313440c2eae3",
        "status" : "broken",
        "time" : {
          "start" : 1615802958274,
          "stop" : 1615802968416,
          "duration" : 10142
        },
        "flaky" : false,
        "newFailed" : false,
        "parameters" : [ "chrome-88.0.4324.182" ]
      }, {
        "name" : "test-sponsor",
        "uid" : "ed828603b1a2a3c4",
        "parentUid" : "8d74c6ff799c07c82e90313440c2eae3",
        "status" : "broken",
        "time" : {
          "start" : 1615802968416,
          "stop" : 1615802978543,
          "duration" : 10127
        },
        "flaky" : false,
        "newFailed" : false,
        "parameters" : [ "chrome-88.0.4324.182" ]
      }, {
        "name" : "test-members",
        "uid" : "2def81a28473f59b",
        "parentUid" : "8d74c6ff799c07c82e90313440c2eae3",
        "status" : "broken",
        "time" : {
          "start" : 1615802978543,
          "stop" : 1615802988663,
          "duration" : 10120
        },
        "flaky" : false,
        "newFailed" : false,
        "parameters" : [ "chrome-88.0.4324.182" ]
      }, {
        "name" : "testing budget",
        "uid" : "b75929da92cf5ad6",
        "parentUid" : "8d74c6ff799c07c82e90313440c2eae3",
        "status" : "broken",
        "time" : {
          "start" : 1615802988663,
          "stop" : 1615802998841,
          "duration" : 10178
        },
        "flaky" : false,
        "newFailed" : false,
        "parameters" : [ "chrome-88.0.4324.182" ]
      }, {
        "name" : "ইভেন্ট অনুমোদনের জন্য প্রেরণ",
        "uid" : "92581fd3c452a972",
        "parentUid" : "8d74c6ff799c07c82e90313440c2eae3",
        "status" : "broken",
        "time" : {
          "start" : 1615802998842,
          "stop" : 1615803008989,
          "duration" : 10147
        },
        "flaky" : false,
        "newFailed" : false,
        "parameters" : [ "chrome-88.0.4324.182" ]
      } ],
      "uid" : "8d74c6ff799c07c82e90313440c2eae3"
    }, {
      "name" : "could not typeText on selector: [object Object]",
      "children" : [ {
        "name" : "testing  basic Info",
        "uid" : "76eaf6b9928fa0d",
        "parentUid" : "eb72122cacda18eea525ae440c17689a",
        "status" : "broken",
        "time" : {
          "start" : 1615802914666,
          "stop" : 1615802927815,
          "duration" : 13149
        },
        "flaky" : false,
        "newFailed" : false,
        "parameters" : [ "chrome-88.0.4324.182" ]
      } ],
      "uid" : "eb72122cacda18eea525ae440c17689a"
    } ],
    "uid" : "bdbf199525818fae7a8651db9eafe741"
  } ],
  "name" : "categories"
}